<svg width="464" height="464" viewBox="0 0 464 464" fill="none" xmlns="http://www.w3.org/2000/svg">
<path d="M2 2C156.651 156.651 465.157 465.157 461.976 461.976" stroke="#CDCDCD" stroke-width="3"/>
<path d="M462 2C307.349 156.651 -1.15695 465.157 2.02443 461.976" stroke="#CDCDCD" stroke-width="3"/>
</svg>
