<svg width="526" height="476" viewBox="0 0 526 476" fill="none" xmlns="http://www.w3.org/2000/svg">
<path d="M174.534 188.37C-35.4307 136.054 5.15491 473.092 5.15491 473.092H522V188.37H412.011" stroke="#CDCDCD" stroke-width="4" stroke-miterlimit="10"/>
<path d="M363.349 29.4893L194.847 11.0917C162.623 8.42979 152.263 27.0206 149.142 57.6975L105.416 472.727" stroke="#CDCDCD" stroke-width="4" stroke-miterlimit="10"/>
<path d="M420.168 439.904L455.431 82.2137C457.817 60.5531 450.006 43.5724 432.731 37.9264" stroke="#CDCDCD" stroke-width="4" stroke-miterlimit="10"/>
<path d="M522 332.909H430.938" stroke="#CDCDCD" stroke-width="4" stroke-miterlimit="10"/>
<path d="M174.533 473.157L302.735 230.382" stroke="#CDCDCD" stroke-width="4" stroke-linejoin="round"/>
<path d="M352.438 472.019L327.577 242.275L280.281 473.157" stroke="#CDCDCD" stroke-width="4" stroke-linejoin="round"/>
<path d="M352.438 230.382L430.937 473.157" stroke="#CDCDCD" stroke-width="4" stroke-linejoin="round"/>
<path d="M329.901 177.7C341.12 177.7 350.214 168.128 350.214 156.319C350.214 144.51 341.12 134.937 329.901 134.937C318.682 134.937 309.588 144.51 309.588 156.319C309.588 168.128 318.682 177.7 329.901 177.7Z" stroke="#CDCDCD" stroke-width="4" stroke-linejoin="round"/>
<path d="M430.938 473.157L476.499 407.209L522 473.071" stroke="#CDCDCD" stroke-width="4" stroke-miterlimit="10"/>
<path d="M430.938 407.209L476.499 341.261L522 407.123L430.938 407.209Z" stroke="#CDCDCD" stroke-width="4" stroke-miterlimit="10"/>
<path d="M150.061 116.99C163.032 129.208 179.438 136.634 196.785 138.141C214.132 139.648 231.473 135.153 246.171 125.339C260.87 115.525 272.123 100.928 278.221 83.7677C284.318 66.607 284.927 47.8202 279.955 30.2619" stroke="#CDCDCD" stroke-width="4" stroke-linejoin="round"/>
<path d="M222.014 314.233H258.459C246.895 241.781 261.437 184.956 326.598 189.443C391.76 193.93 405.873 298.927 522.001 226.775" stroke="#CDCDCD" stroke-width="4" stroke-linejoin="round"/>
<path d="M186.484 214.624V450.551" stroke="#CDCDCD" stroke-width="4" stroke-miterlimit="10"/>
<path d="M145.533 257.817L186.568 214.624L225.603 255.713" stroke="#CDCDCD" stroke-width="4" stroke-miterlimit="10"/>
<path d="M145.533 279.435L186.568 236.221L225.603 277.309" stroke="#CDCDCD" stroke-width="4" stroke-miterlimit="10"/>
<path d="M145.533 301.03L186.568 257.816L225.603 298.905" stroke="#CDCDCD" stroke-width="4" stroke-miterlimit="10"/>
<path d="M67.5216 472.727C67.5216 472.727 4.29772 332.588 58.9558 332.588C113.614 332.588 150.059 424.897 150.059 424.897" stroke="#CDCDCD" stroke-width="4" stroke-miterlimit="10"/>
<path d="M343.606 55.6364L345.218 60.8316C345.467 61.6318 345.951 62.3285 346.599 62.822C347.247 63.3155 348.027 63.5807 348.828 63.5794H354.008C354.811 63.5776 355.594 63.8443 356.244 64.341C356.895 64.8378 357.378 65.539 357.625 66.3435C357.872 67.1481 357.871 68.0145 357.62 68.8179C357.369 69.6213 356.883 70.3202 356.231 70.8139L352.152 74.0126C351.504 74.5092 351.022 75.2079 350.773 76.0094C350.524 76.8108 350.521 77.6745 350.765 78.4778L352.376 83.6729C352.614 84.4753 352.607 85.3359 352.355 86.1336C352.103 86.9312 351.62 87.6256 350.973 88.1188C350.327 88.612 349.55 88.8792 348.751 88.8826C347.953 88.8861 347.173 88.6257 346.523 88.1381L342.444 84.9395C341.796 84.439 341.014 84.1691 340.211 84.1691C339.407 84.1691 338.625 84.439 337.978 84.9395L333.797 88.1381C333.146 88.6257 332.367 88.8861 331.568 88.8826C330.77 88.8792 329.993 88.612 329.346 88.1188C328.699 87.6256 328.216 86.9312 327.965 86.1336C327.713 85.3359 327.706 84.4753 327.943 83.6729L329.554 78.4778C329.798 77.6745 329.795 76.8108 329.546 76.0094C329.297 75.2079 328.815 74.5092 328.168 74.0126L323.987 70.8139C323.334 70.3202 322.848 69.6213 322.597 68.8179C322.347 68.0145 322.345 67.1481 322.592 66.3435C322.84 65.539 323.323 64.8378 323.973 64.341C324.623 63.8443 325.406 63.5776 326.21 63.5794H331.39C332.19 63.5807 332.97 63.3155 333.618 62.822C334.267 62.3285 334.75 61.6318 335 60.8316L336.591 55.6364C336.877 54.9048 337.363 54.2791 337.988 53.8387C338.612 53.3984 339.347 53.1633 340.099 53.1633C340.85 53.1633 341.585 53.3984 342.21 53.8387C342.834 54.2791 343.32 54.9048 343.606 55.6364Z" stroke="#CDCDCD" stroke-width="4" stroke-miterlimit="10"/>
<path d="M403.139 4.75898L407.361 18.4552C407.617 19.3007 408.124 20.0378 408.806 20.5592C409.488 21.0805 410.311 21.3587 411.154 21.3533H424.839C425.68 21.3468 426.502 21.6225 427.184 22.1407C427.866 22.6588 428.373 23.3923 428.633 24.2347C428.892 25.0771 428.889 25.9845 428.625 26.8252C428.361 27.6658 427.849 28.3961 427.164 28.9098L416.09 37.3036C415.422 37.8333 414.925 38.5663 414.665 39.4035C414.406 40.2406 414.398 41.1412 414.642 41.9835L418.884 55.6797C419.08 56.5097 419.037 57.3826 418.759 58.1864C418.481 58.9902 417.981 59.6883 417.324 60.1911C416.666 60.694 415.881 60.9787 415.069 61.0087C414.257 61.0387 413.455 60.8127 412.765 60.3596L401.691 51.9014C401.013 51.3798 400.196 51.0987 399.356 51.0987C398.516 51.0987 397.698 51.3798 397.021 51.9014L385.946 60.3596C385.257 60.8127 384.455 61.0387 383.643 61.0087C382.831 60.9787 382.045 60.694 381.388 60.1911C380.731 59.6883 380.231 58.9902 379.953 58.1864C379.675 57.3826 379.631 56.5097 379.828 55.6797L384.05 41.9835C384.314 41.1449 384.318 40.2395 384.062 39.3982C383.805 38.5569 383.301 37.8234 382.622 37.3036L371.548 28.824C370.862 28.3102 370.351 27.58 370.087 26.7393C369.823 25.8986 369.82 24.9912 370.079 24.1488C370.338 23.3065 370.846 22.573 371.528 22.0548C372.21 21.5367 373.031 21.2609 373.873 21.2674H387.537C388.38 21.2729 389.203 20.9946 389.885 20.4733C390.568 19.952 391.074 19.2148 391.331 18.3693L395.552 4.67313C395.861 3.8756 396.391 3.19424 397.072 2.71759C397.753 2.24093 398.555 1.99099 399.373 2.00025C400.192 2.00951 400.988 2.27754 401.66 2.76951C402.331 3.26148 402.847 3.95465 403.139 4.75898Z" stroke="#CDCDCD" stroke-width="4" stroke-miterlimit="10"/>
</svg>
