<svg width="260" height="260" viewBox="0 0 260 260" fill="none" xmlns="http://www.w3.org/2000/svg">
<rect width="260" height="260" fill="#6952FF"/>
<path d="M209.027 48.6154C190.595 73.479 178.238 106.739 170.057 135.501C157.216 68.5027 145.065 53.0878 129.733 53.0878C114.401 53.0878 102.036 68.7148 88.4062 137.11C80.234 107.942 67.7964 73.9386 48.9787 48.6154L27.0875 64.4103C61.9002 111.362 72.9937 188.932 75.4758 210.048H103.774C110.548 156.219 121.283 105.626 129.689 86.0831C137.888 105.688 148.112 156.281 154.34 210.048H182.575C185.021 188.932 196.115 111.353 230.964 64.4103L209.027 48.6154Z" fill="#FBFBFB"/>
</svg>
