<svg width="24" height="24" viewBox="0 0 24 24" fill="none" xmlns="http://www.w3.org/2000/svg">
<rect x="1" y="1" width="22" height="22" rx="5" fill="white"/>
<rect x="1" y="1" width="22" height="22" rx="5" stroke="#ECECEC" stroke-width="2"/>
</svg>
