<svg width="24" height="24" viewBox="0 0 24 24" fill="none" xmlns="http://www.w3.org/2000/svg">
<path d="M20.7071 4.70711C21.0976 4.31658 21.0976 3.68342 20.7071 3.29289C20.3166 2.90237 19.6834 2.90237 19.2929 3.29289L3.29289 19.2929C2.90237 19.6834 2.90237 20.3166 3.29289 20.7071C3.68342 21.0976 4.31658 21.0976 4.70711 20.7071L20.7071 4.70711Z" fill="#0F0F0F"/>
<path d="M11.7301 4.99999C13.1193 4.95818 14.3757 5.22667 15.4941 5.67747L13.919 7.25254C13.2681 7.07565 12.571 6.98099 11.8301 6.99999C7.83007 7.09999 5.22007 10.39 4.22007 12C4.60957 12.6241 5.37719 13.6949 6.48562 14.686L5.0554 16.1162C3.42609 14.6391 2.44207 13.0398 2.13007 12.5C2.0423 12.348 1.99609 12.1755 1.99609 12C1.99609 11.8245 2.0423 11.652 2.13007 11.5C3.00007 9.99999 6.20007 5.13999 11.7301 4.99999Z" fill="#0F0F0F"/>
<path d="M12 8.5C12.2083 8.5 12.4146 8.51856 12.6168 8.55476L8.55478 12.6168C8.4369 11.9584 8.51009 11.2794 8.76642 10.6606C9.03133 10.0211 9.47993 9.47444 10.0555 9.08986C10.6311 8.70527 11.3078 8.5 12 8.5Z" fill="#0F0F0F"/>
<path d="M15.4452 11.3832L11.3832 15.4452C12.0416 15.5631 12.7206 15.4899 13.3394 15.2336C13.9789 14.9687 14.5256 14.5201 14.9101 13.9445C15.2947 13.3689 15.5 12.6922 15.5 12C15.5 11.7917 15.4814 11.5854 15.4452 11.3832Z" fill="#0F0F0F"/>
<path d="M12.2201 17C11.4641 17.0175 10.7542 16.9185 10.0929 16.7356L8.50766 18.3208C9.55547 18.7393 10.727 19 12.0201 19H12.2701C17.8001 18.86 21.0101 14 21.8701 12.5C21.9578 12.348 22.004 12.1755 22.004 12C22.004 11.8245 21.9578 11.652 21.8701 11.5C21.5587 10.96 20.5658 9.36444 18.9395 7.88889L17.5347 9.29371C18.6552 10.2909 19.4339 11.3723 19.8301 12C18.8001 13.61 16.2201 16.9 12.2201 17Z" fill="#0F0F0F"/>
</svg>
