<svg width="24" height="24" viewBox="0 0 24 24" fill="none" xmlns="http://www.w3.org/2000/svg">
<path d="M3 19V10.562C3 9.90936 3.31842 9.29778 3.85308 8.92352L10.8531 4.02352C11.5417 3.54148 12.4583 3.54148 13.1469 4.02352L20.1469 8.92352C20.6816 9.29778 21 9.90936 21 10.562V19C21 20.1046 20.1046 21 19 21H16V17C16 14.7909 14.2091 13 12 13C9.79086 13 8 14.7909 8 17V21H5C3.89543 21 3 20.1046 3 19Z" stroke="#0F0F0F" stroke-width="2"/>
</svg>
