<svg width="25" height="24" viewBox="0 0 25 24" fill="none" xmlns="http://www.w3.org/2000/svg">
<path fill-rule="evenodd" clip-rule="evenodd" d="M2.5 19V10.562C2.5 9.58305 2.97763 8.66568 3.77961 8.10429L10.7796 3.20429C11.8126 2.48122 13.1874 2.48122 14.2204 3.20429L21.2204 8.10429C22.0224 8.66568 22.5 9.58305 22.5 10.562V19C22.5 20.6569 21.1569 22 19.5 22H15.5V17C15.5 15.3432 14.1569 14 12.5 14C10.8431 14 9.5 15.3432 9.5 17V22H5.5C3.84315 22 2.5 20.6569 2.5 19Z" fill="#F5F5F5"/>
</svg>
