<svg width="140" height="40" viewBox="0 0 140 40" fill="none" xmlns="http://www.w3.org/2000/svg">
<circle cx="20" cy="20" r="20" fill="#FF1555"/>
<path d="M26.451 7.67303C24.3747 6.58639 22.0575 6.04183 19.7145 6.08989C17.3715 6.13794 15.0786 6.77705 13.0485 7.94792C11.8604 8.6332 10.3575 8.278 9.59493 7.16549C12.4354 4.85989 16.0562 3.47827 19.9998 3.47827C23.6999 3.47827 27.1159 4.69461 29.8699 6.74926C29.1536 7.8924 27.6664 8.3091 26.451 7.67303Z" fill="white"/>
<path d="M32.8343 9.59517C31.7218 10.3578 31.3666 11.8606 32.0519 13.0487C33.2227 15.0788 33.8618 17.3717 33.9099 19.7147C33.9579 22.0577 33.4134 24.3749 32.3267 26.4512C31.6907 27.6666 32.1074 29.1539 33.2505 29.8701C35.3052 27.1162 36.5215 23.7001 36.5215 20C36.5215 16.0565 35.1399 12.4357 32.8343 9.59517Z" fill="white"/>
<path d="M30.4046 32.8345C29.642 31.722 28.1392 31.3668 26.951 32.0521C24.921 33.223 22.6281 33.8621 20.2851 33.9101C17.9421 33.9582 15.6249 33.4136 13.5485 32.327C12.3331 31.6909 10.8459 32.1076 10.1297 33.2508C12.8836 35.3054 16.2996 36.5218 19.9998 36.5218C23.9433 36.5218 27.5641 35.1401 30.4046 32.8345Z" fill="white"/>
<path d="M7.16524 30.4048C8.27776 29.6423 8.63296 28.1394 7.94768 26.9513C6.77682 24.9212 6.1377 22.6283 6.08965 20.2853C6.04159 17.9423 6.58615 15.6251 7.6728 13.5488C8.30886 12.3334 7.89217 10.8462 6.74902 10.1299C4.69437 12.8838 3.47803 16.2999 3.47803 20C3.47803 23.9435 4.85965 27.5644 7.16524 30.4048Z" fill="white"/>
<path d="M22.8404 12.7077C21.2527 12.0892 19.5064 12.0058 17.867 12.4701C16.2275 12.9345 14.7844 13.9213 13.7568 15.2806C12.7293 16.6398 12.1734 18.2973 12.1737 20.0013C12.174 21.7053 12.7304 23.3626 13.7584 24.7215C14.7864 26.0805 16.2299 27.0668 17.8695 27.5306C19.5091 27.9944 21.2553 27.9104 22.8429 27.2914C24.4304 26.6724 25.7726 25.5521 26.6654 24.1008C27.0429 23.4873 27.8463 23.2959 28.4598 23.6733C29.0734 24.0508 29.2648 24.8542 28.8873 25.4677C27.6968 27.4028 25.9073 28.8965 23.7906 29.7219C21.6738 30.5472 19.3456 30.6592 17.1594 30.0408C14.9732 29.4223 13.0486 28.1073 11.6779 26.2954C10.3072 24.4835 9.56536 22.2737 9.56498 20.0017C9.56461 17.7298 10.3057 15.5198 11.6758 13.7074C13.0459 11.895 14.9701 10.5794 17.156 9.96019C19.342 9.34103 21.6703 9.45222 23.7873 10.2769C25.9043 11.1015 27.6944 12.5946 28.8855 14.5293C29.2632 15.1427 29.072 15.9462 28.4586 16.3239C27.8452 16.7015 27.0417 16.5104 26.6641 15.897C25.7707 14.446 24.4282 13.3262 22.8404 12.7077Z" fill="white"/>
<path d="M18.7755 15.8185C17.9698 15.3499 16.9563 15.9272 16.9563 16.8547V23.1453C16.9563 24.0728 17.9698 24.6501 18.7755 24.1815L24.1843 21.0362C24.9817 20.5725 24.9817 19.4275 24.1843 18.9638L18.7755 15.8185Z" fill="white"/>
<path d="M66.498 16.9274H62.2672C62.1899 16.3813 62.0321 15.8963 61.7939 15.4723C61.5556 15.0419 61.2497 14.6757 60.8762 14.3738C60.5027 14.0719 60.0713 13.8406 59.5819 13.68C59.0989 13.5194 58.5741 13.4391 58.0074 13.4391C56.9835 13.4391 56.0916 13.6928 55.3318 14.2003C54.5719 14.7014 53.9827 15.4338 53.5641 16.3974C53.1455 17.3546 52.9363 18.5174 52.9363 19.8857C52.9363 21.2926 53.1455 22.4747 53.5641 23.4319C53.9891 24.3891 54.5816 25.1118 55.3414 25.6001C56.1013 26.0883 56.9803 26.3324 57.9784 26.3324C58.5387 26.3324 59.0571 26.2585 59.5336 26.1108C60.0165 25.963 60.4448 25.7478 60.8183 25.4651C61.1918 25.1761 61.5009 24.8259 61.7456 24.4148C61.9967 24.0036 62.1706 23.5347 62.2672 23.0079L66.498 23.0272C66.3885 23.933 66.1148 24.8067 65.6769 25.6482C65.2455 26.4834 64.6627 27.2318 63.9286 27.8935C63.2009 28.5488 62.3316 29.0691 61.3206 29.4546C60.316 29.8336 59.1794 30.0231 57.9108 30.0231C56.1464 30.0231 54.5687 29.6248 53.1777 28.8282C51.7932 28.0316 50.6985 26.8785 49.8936 25.3688C49.0951 23.8591 48.6958 22.0314 48.6958 19.8857C48.6958 17.7336 49.1015 15.9027 49.9129 14.3931C50.7243 12.8834 51.8254 11.7334 53.2164 10.9433C54.6073 10.1467 56.1721 9.74838 57.9108 9.74838C59.0571 9.74838 60.1196 9.90898 61.0984 10.2302C62.0836 10.5514 62.9562 11.0204 63.7161 11.6371C64.4759 12.2474 65.0941 12.9958 65.5707 13.8823C66.0536 14.7689 66.3627 15.7839 66.498 16.9274Z" fill="#1E1E1E"/>
<path d="M73.0996 10.0182V29.7533H68.9847V10.0182H73.0996Z" fill="#1E1E1E"/>
<path d="M75.9606 29.7533V14.952H80.0755V29.7533H75.9606ZM78.0277 13.044C77.416 13.044 76.8911 12.8416 76.4532 12.4369C76.0218 12.0258 75.8061 11.5343 75.8061 10.9625C75.8061 10.3972 76.0218 9.91219 76.4532 9.50747C76.8911 9.09632 77.416 8.89075 78.0277 8.89075C78.6395 8.89075 79.1611 9.09632 79.5925 9.50747C80.0304 9.91219 80.2494 10.3972 80.2494 10.9625C80.2494 11.5343 80.0304 12.0258 79.5925 12.4369C79.1611 12.8416 78.6395 13.044 78.0277 13.044Z" fill="#1E1E1E"/>
<path d="M82.9365 35.3038V14.952H86.9935V17.4381H87.177C87.3573 17.0398 87.6181 16.6351 87.9594 16.224C88.3071 15.8064 88.7579 15.4595 89.3117 15.1832C89.8719 14.9006 90.5674 14.7592 91.3981 14.7592C92.48 14.7592 93.4781 15.0419 94.3925 15.6072C95.3069 16.1661 96.0378 17.0109 96.5852 18.1416C97.1325 19.2658 97.4062 20.6759 97.4062 22.3719C97.4062 24.0229 97.139 25.417 96.6045 26.5541C96.0765 27.6847 95.3552 28.5423 94.4408 29.1269C93.5328 29.7051 92.5154 29.9942 91.3885 29.9942C90.59 29.9942 89.9106 29.8625 89.3503 29.5991C88.7965 29.3357 88.3425 29.0049 87.9884 28.6066C87.6342 28.2019 87.3637 27.7939 87.177 27.3828H87.0514V35.3038H82.9365ZM86.9645 22.3526C86.9645 23.2327 87.0868 24.0004 87.3315 24.6557C87.5762 25.311 87.9304 25.8217 88.3941 26.1879C88.8577 26.5476 89.4212 26.7275 90.0844 26.7275C90.7542 26.7275 91.3208 26.5444 91.7845 26.1782C92.2481 25.8056 92.5991 25.2917 92.8374 24.6364C93.0821 23.9747 93.2044 23.2135 93.2044 22.3526C93.2044 21.4982 93.0853 20.7466 92.847 20.0977C92.6088 19.4489 92.2578 18.9414 91.7941 18.5752C91.3305 18.209 90.7606 18.0259 90.0844 18.0259C89.4147 18.0259 88.848 18.2026 88.3844 18.5559C87.9272 18.9093 87.5762 19.4104 87.3315 20.0592C87.0868 20.708 86.9645 21.4725 86.9645 22.3526Z" fill="#1E1E1E"/>
<path d="M106.476 30.0424C104.95 30.0424 103.636 29.734 102.535 29.1173C101.44 28.4942 100.596 27.614 100.004 26.477C99.4116 25.3335 99.1154 23.9812 99.1154 22.4201C99.1154 20.8976 99.4116 19.5613 100.004 18.4114C100.596 17.2615 101.43 16.3653 102.506 15.7229C103.588 15.0805 104.856 14.7592 106.312 14.7592C107.29 14.7592 108.202 14.9166 109.045 15.2314C109.895 15.5398 110.636 16.0055 111.267 16.6287C111.904 17.2518 112.4 18.0356 112.754 18.9799C113.109 19.9179 113.286 21.0164 113.286 22.2755V23.403L103.182 23.4126V20.9939L109.412 20.859C109.412 20.268 109.283 19.7444 109.026 19.2883C108.768 18.8322 108.411 18.4756 107.954 18.2187C107.503 17.9553 106.978 17.8236 106.379 17.8236C105.755 17.8236 105.201 17.9681 104.718 18.2572C104.241 18.5399 103.868 18.9221 103.597 19.4039C103.327 19.8793 103.188 20.4093 103.182 20.9939V23.4126C103.182 24.145 103.317 24.7778 103.588 25.311C103.865 25.8442 104.254 26.2553 104.756 26.5444C105.259 26.8335 105.854 26.978 106.543 26.978C107.001 26.978 107.419 26.9138 107.799 26.7853C108.179 26.6568 108.504 26.4641 108.775 26.2071C109.045 25.9502 109.251 25.6354 109.393 25.2628L113.199 25.5133C113.006 26.4256 112.609 27.2222 112.011 27.9031C111.418 28.5777 110.652 29.1045 109.712 29.4835C108.778 29.8561 107.699 30.0424 106.476 30.0424Z" fill="#1E1E1E"/>
<path d="M115.536 29.7533V14.952H119.525V17.5345H119.68C119.95 16.6158 120.404 15.922 121.042 15.4531C121.679 14.9777 122.413 14.74 123.244 14.74C123.45 14.74 123.672 14.7528 123.91 14.7785C124.149 14.8042 124.358 14.8395 124.538 14.8845V18.527C124.345 18.4692 124.078 18.4178 123.736 18.3728C123.395 18.3279 123.083 18.3054 122.8 18.3054C122.194 18.3054 121.653 18.4371 121.177 18.7005C120.707 18.9574 120.333 19.3172 120.056 19.7797C119.786 20.2423 119.651 20.7755 119.651 21.3794V29.7533H115.536Z" fill="#1E1E1E"/>
<path d="M138.575 19.1727L134.808 19.4039C134.744 19.0827 134.605 18.7936 134.393 18.5367C134.18 18.2733 133.9 18.0645 133.552 17.9103C133.211 17.7497 132.802 17.6694 132.326 17.6694C131.688 17.6694 131.15 17.8043 130.712 18.0741C130.275 18.3375 130.056 18.6908 130.056 19.1341C130.056 19.4874 130.197 19.7862 130.481 20.0303C130.764 20.2744 131.25 20.4703 131.939 20.6181L134.624 21.1577C136.067 21.4532 137.142 21.9286 137.851 22.5839C138.559 23.2392 138.913 24.1 138.913 25.1664C138.913 26.1365 138.627 26.9877 138.054 27.72C137.487 28.4524 136.708 29.0241 135.716 29.4353C134.731 29.84 133.594 30.0424 132.306 30.0424C130.342 30.0424 128.777 29.6344 127.612 28.8186C126.453 27.9963 125.773 26.8785 125.574 25.4651L129.621 25.2532C129.743 25.8506 130.039 26.3067 130.51 26.6215C130.98 26.9299 131.582 27.084 132.316 27.084C133.037 27.084 133.617 26.9459 134.055 26.6697C134.499 26.387 134.724 26.0241 134.731 25.5808C134.724 25.2082 134.566 24.903 134.257 24.6653C133.948 24.4212 133.472 24.2349 132.828 24.1064L130.258 23.5957C128.81 23.3066 127.731 22.8055 127.023 22.0925C126.321 21.3794 125.97 20.4703 125.97 19.3654C125.97 18.4146 126.227 17.5955 126.742 16.9081C127.264 16.2207 127.995 15.6908 128.935 15.3181C129.882 14.9455 130.989 14.7592 132.258 14.7592C134.132 14.7592 135.606 15.1543 136.682 15.9445C137.764 16.7347 138.395 17.8107 138.575 19.1727Z" fill="#1E1E1E"/>
</svg>
