<svg width="10" height="10" viewBox="0 0 10 10" fill="none" xmlns="http://www.w3.org/2000/svg">
    <path d="M6 1C6 0.447715 5.55228 0 5 0C4.44772 0 4 0.447715 4 1V4L1 4C0.447715 4 0 4.44771 0 5C0 5.55228 0.447716 6 1 6L4 6V9C4 9.55228 4.44772 10 5 10C5.55228 10 6 9.55228 6 9V6L9 6C9.55229 6 10 5.55229 10 5C10 4.44772 9.55228 4 9 4L6 4V1Z" fill="white"/>
</svg>
